Lectura de datos
…
Donde se ve que la columna Temperatura tiene clase chr (caracter).

Seguramente lo primero que tratarás en un caso así es simplemente cambiarle el tipo a la columna

library(dplyr)

## Warning: replacing previous import 'vctrs::data_frame' by 'tibble::data_frame'
## when loading 'dplyr'

bariloche %>% 
  mutate(Temperatura = as.numeric(Temperatura))

## Warning in mask$eval_all_mutate(dots[[i]]): NAs introduced by coercion

## # A tibble: 3,024 x 2
##    Fecha               Temperatura
##    <dttm>                    <dbl>
##  1 2011-05-28 00:00:00       NA   
##  2 2011-05-29 00:00:00        4.27
##  3 2019-06-15 00:00:00    -1000.  
##  4 2011-05-31 00:00:00        3.47
##  5 2011-06-01 00:00:00        2.90
##  6 2011-06-02 00:00:00        6.26
##  7 2011-06-03 00:00:00        3.45
##  8 2016-03-22 00:00:00    -1000.  
##  9 2011-06-05 00:00:00        5.00
## 10 2011-06-06 00:00:00        5.45
## # … with 3,014 more rows

Pero R dice que hay un problema. NAs introduced by coercion significa que algunos valores no se pudieron transformar en numéricos y entonces as.numeric los dejó como valores faltantes. Casi con seguridad no querés eso. Para ver qué está pasando, hay que investigar qué contenidos tienen esas filas. Para eso, podés filtrar las filas de bariloche que no tienen NA en Temperatura pero que se convierten en NA al hacer as.numeric(Temperatura):

bariloche %>% 
  filter(!is.na(Temperatura) & is.na(as.numeric(Temperatura)))

## Warning in mask$eval_all_filter(dots, env_filter): NAs introduced by coercion

## # A tibble: 302 x 2
##    Fecha               Temperatura
##    <dttm>              <chr>      
##  1 2018-12-16 00:00:00 N/A        
##  2 2011-06-02 00:00:00 N/A        
##  3 2019-07-19 00:00:00 N/A        
##  4 2020-05-13 00:00:00 N/A        
##  5 2015-12-08 00:00:00 N/A        
##  6 2015-05-23 00:00:00 N/A        
##  7 2015-04-27 00:00:00 N/A        
##  8 2014-09-10 00:00:00 N/A        
##  9 2019-12-23 00:00:00 N/A        
## 10 2019-07-10 00:00:00 N/A        
## # … with 292 more rows
…
