Manipulación de datos ordenados usando {dplyr} - Primera parte
…
## See spec(...) for full column specifications.

Seleccionando columnas con select()

Para quedarse únicamente con las columnas de Fecha, Temperatura_Abrigo_150cm y Humedad_Media podés usar select(), el primer argumento es siempre el data.frame:

select(bariloche, Fecha, Temperatura_Abrigo_150cm, Humedad_Media) # Ojo con las mayúsculas!

## # A tibble: 3,024 x 3
##    Fecha               Temperatura_Abrigo_150cm Humedad_Media
##    <dttm>                                 <dbl>         <dbl>
##  1 2011-05-28 00:00:00                    NA               NA
##  2 2011-05-29 00:00:00                     4.27            79
##  3 2011-05-30 00:00:00                     1.69            93
##  4 2011-05-31 00:00:00                     3.47            96
##  5 2011-06-01 00:00:00                     2.90            98
##  6 2011-06-02 00:00:00                     6.26            93
##  7 2011-06-03 00:00:00                     3.45            88
##  8 2011-06-04 00:00:00                     6.09            87
##  9 2011-06-05 00:00:00                     5.00           100
## 10 2011-06-06 00:00:00                     5.45            91
## # … with 3,014 more rows

¿Dónde quedó este resultado? Si te fijás en la variable bariloche, ésta está intacta:

bariloche

## # A tibble: 3,024 x 31
##    Fecha               Temperatura_Abr… Temperatura_Abr… Temperatura_Abr…
##    <dttm>                         <dbl>            <dbl>            <dbl>
##  1 2011-05-28 00:00:00            NA                NA               NA  
##  2 2011-05-29 00:00:00             4.27             12.8             -1.2
##  3 2011-05-30 00:00:00             1.69              9.2             -2.8
##  4 2011-05-31 00:00:00             3.47              9.6              0.5
##  5 2011-06-01 00:00:00             2.90              9.6             -1.5
##  6 2011-06-02 00:00:00             6.26             13.3              2.9
##  7 2011-06-03 00:00:00             3.45             12.6             -1.8
##  8 2011-06-04 00:00:00             6.09             10.2              3.9
##  9 2011-06-05 00:00:00             5.00              7.1              3.4
## 10 2011-06-06 00:00:00             5.45              9.5              3.2
## # … with 3,014 more rows, and 27 more variables:
## #   Temperatura_Intemperie_5cm_Minima <lgl>,
## #   Temperatura_Intemperie_50cm_Minima <lgl>,
## #   Temperatura_Suelo_5cm_Media <lgl>, Temperatura_Suelo_10cm_Media <dbl>,
## #   Temperatura_Inte_5cm <lgl>, Temperatura_Intemperie_150cm_Minima <lgl>,
## #   Humedad_Suelo <lgl>, Precipitacion_Pluviometrica <dbl>,
## #   Precipitacion_Cronologica <dbl>, Precipitacion_Maxima_30minutos <dbl>,
## #   Heliofania_Efectiva <lgl>, Heliofania_Relativa <lgl>,
## #   Tesion_Vapor_Media <dbl>, Humedad_Media <dbl>, Humedad_Media_8_14_20 <dbl>,
## #   Rocio_Medio <dbl>, Duracion_Follaje_Mojado <lgl>,
## #   Velocidad_Viento_200cm_Media <lgl>, Direccion_Viento_200cm <chr>,
## #   Velocidad_Viento_1000cm_Media <lgl>, Direccion_Viento_1000cm <chr>,
## #   Velocidad_Viento_Maxima <lgl>, Presion_Media <lgl>, Radiacion_Global <lgl>,
## #   Horas_Frio <dbl>, Unidades_Frio <dbl>, mes <chr>

select() y el resto de las funciones de {dplyr} siempre generan una nueva tabla y nunca modifican la tabla original. Para guardar la tabla con las tres columnas Fecha, Temperatura_Abrigo_150cm y Humedad_Media tenés que asignar el resultado a una nueva variable.

temp_hum <- select(bariloche, Fecha, Temperatura_Abrigo_150cm, Humedad_Media)
temp_hum

## # A tibble: 3,024 x 3
##    Fecha               Temperatura_Abrigo_150cm Humedad_Media
##    <dttm>                                 <dbl>         <dbl>
##  1 2011-05-28 00:00:00                    NA               NA
##  2 2011-05-29 00:00:00                     4.27            79
##  3 2011-05-30 00:00:00                     1.69            93
##  4 2011-05-31 00:00:00                     3.47            96
##  5 2011-06-01 00:00:00                     2.90            98
##  6 2011-06-02 00:00:00                     6.26            93
##  7 2011-06-03 00:00:00                     3.45            88
##  8 2011-06-04 00:00:00                     6.09            87
##  9 2011-06-05 00:00:00                     5.00           100
## 10 2011-06-06 00:00:00                     5.45            91
## # … with 3,014 more rows
…
Cómo funciona select()

Filtrando filas con filter()

Ahora podés usar filter() para quedarte con sólo unas filas. Por ejemplo, para ver aquellos días con temperatura menor a 0 grados:

filter(temp_hum, Temperatura_Abrigo_150cm < 0)

## # A tibble: 38 x 3
##    Fecha               Temperatura_Abrigo_150cm Humedad_Media
##    <dttm>                                 <dbl>         <dbl>
##  1 2011-06-25 00:00:00                   -1.91             86
##  2 2011-07-02 00:00:00                   -0.865            79
##  3 2011-07-03 00:00:00                   -1.77             80
##  4 2011-07-04 00:00:00                   -1.18             82
##  5 2011-07-05 00:00:00                   -1.58             90
##  6 2011-07-17 00:00:00                   -0.647            86
##  7 2011-07-18 00:00:00                   -0.126            86
##  8 2011-07-31 00:00:00                   -0.756            89
##  9 2012-06-06 00:00:00                   -1.92             83
## 10 2012-06-07 00:00:00                   -0.915            85
## # … with 28 more rows

La mayoría de los análisis consisten en varios pasos (en el primer desafío usaste 4 pasos para calcular las temperaturas medias de una serie de estaciones). La única tabla que te interesa es la última, por lo que ir asignando variables nuevas en cada paso intermedio es tedioso y poco práctico. Para eso se usa el operador ‘pipe’ (%>%).

El operador ‘pipe’ (%>%) agarra el resultado de una función y se lo pasa a la siguiente. Esto permite escribir el código como una cadena de funciones que van operando sobre el resultado de la anterior.

Las dos operaciones anteriores (seleccionar tres columnas y luego filtar las filas correspondientes temperaturas menores a 0°C) se pueden escribir uno después del otro y sin asignar los resultados intermedios a nuevas variables de esta forma:

bariloche %>% 
  select(Fecha, Temperatura_Abrigo_150cm, Humedad_Media) %>% 
  filter(Temperatura_Abrigo_150cm < 0)

## # A tibble: 38 x 3
##    Fecha               Temperatura_Abrigo_150cm Humedad_Media
##    <dttm>                                 <dbl>         <dbl>
##  1 2011-06-25 00:00:00                   -1.91             86
##  2 2011-07-02 00:00:00                   -0.865            79
##  3 2011-07-03 00:00:00                   -1.77             80
##  4 2011-07-04 00:00:00                   -1.18             82
##  5 2011-07-05 00:00:00                   -1.58             90
##  6 2011-07-17 00:00:00                   -0.647            86
##  7 2011-07-18 00:00:00                   -0.126            86
##  8 2011-07-31 00:00:00                   -0.756            89
##  9 2012-06-06 00:00:00                   -1.92             83
## 10 2012-06-07 00:00:00                   -0.915            85
## # … with 28 more rows
…
bariloche %>% 
  filter(Humedad_Media == ___) %>%
  select(___, ___, ___)

Agrupando y reduciendo con group_by() %>% summarise()

Si querés calcular la temperatura media para cada mes, tenés que usar el combo group_by() %>% summarise(). Es decir, primero agrupar la tabla según la columna mes y luego calcular un promedio de Temperatura_Abrigo_150cm para cada grupo.

Para agrupar la tabla bariloche según el mes usamos el siguiente código:

bariloche %>% 
  group_by(mes) 

## # A tibble: 3,024 x 31
## # Groups:   mes [12]
##    Fecha               Temperatura_Abr… Temperatura_Abr… Temperatura_Abr…
##    <dttm>                         <dbl>            <dbl>            <dbl>
##  1 2011-05-28 00:00:00            NA                NA               NA  
##  2 2011-05-29 00:00:00             4.27             12.8             -1.2
##  3 2011-05-30 00:00:00             1.69              9.2             -2.8
##  4 2011-05-31 00:00:00             3.47              9.6              0.5
##  5 2011-06-01 00:00:00             2.90              9.6             -1.5
##  6 2011-06-02 00:00:00             6.26             13.3              2.9
##  7 2011-06-03 00:00:00             3.45             12.6             -1.8
##  8 2011-06-04 00:00:00             6.09             10.2              3.9
##  9 2011-06-05 00:00:00             5.00              7.1              3.4
## 10 2011-06-06 00:00:00             5.45              9.5              3.2
## # … with 3,014 more rows, and 27 more variables:
## #   Temperatura_Intemperie_5cm_Minima <lgl>,
## #   Temperatura_Intemperie_50cm_Minima <lgl>,
## #   Temperatura_Suelo_5cm_Media <lgl>, Temperatura_Suelo_10cm_Media <dbl>,
## #   Temperatura_Inte_5cm <lgl>, Temperatura_Intemperie_150cm_Minima <lgl>,
## #   Humedad_Suelo <lgl>, Precipitacion_Pluviometrica <dbl>,
## #   Precipitacion_Cronologica <dbl>, Precipitacion_Maxima_30minutos <dbl>,
## #   Heliofania_Efectiva <lgl>, Heliofania_Relativa <lgl>,
## #   Tesion_Vapor_Media <dbl>, Humedad_Media <dbl>, Humedad_Media_8_14_20 <dbl>,
…
En este caso count() es análogo a summarise(cantidad = n()).

Creando nuevas columnas con mutate()

Todo esto está bien para hacer cálculos con columnas previamente existentes, pero muchas veces tenés que crear nuevas columnas.

La tabla bariloche tiene información de temperaturas en grados centígrados y puede ser necesario convertirlas a kelvin. mutate() permite agregar una nueva columna llamada “Temperatura_kelvin” con esa información:

bariloche %>% 
  mutate(Temperatura_kelvin = Temperatura_Abrigo_150cm + 273,15)

## # A tibble: 3,024 x 33
##    Fecha               Temperatura_Abr… Temperatura_Abr… Temperatura_Abr…
##    <dttm>                         <dbl>            <dbl>            <dbl>
##  1 2011-05-28 00:00:00            NA                NA               NA  
##  2 2011-05-29 00:00:00             4.27             12.8             -1.2
##  3 2011-05-30 00:00:00             1.69              9.2             -2.8
##  4 2011-05-31 00:00:00             3.47              9.6              0.5
##  5 2011-06-01 00:00:00             2.90              9.6             -1.5
##  6 2011-06-02 00:00:00             6.26             13.3              2.9
##  7 2011-06-03 00:00:00             3.45             12.6             -1.8
##  8 2011-06-04 00:00:00             6.09             10.2              3.9
##  9 2011-06-05 00:00:00             5.00              7.1              3.4
## 10 2011-06-06 00:00:00             5.45              9.5              3.2
## # … with 3,014 more rows, and 29 more variables:
## #   Temperatura_Intemperie_5cm_Minima <lgl>,
## #   Temperatura_Intemperie_50cm_Minima <lgl>,
## #   Temperatura_Suelo_5cm_Media <lgl>, Temperatura_Suelo_10cm_Media <dbl>,
## #   Temperatura_Inte_5cm <lgl>, Temperatura_Intemperie_150cm_Minima <lgl>,
## #   Humedad_Suelo <lgl>, Precipitacion_Pluviometrica <dbl>,
## #   Precipitacion_Cronologica <dbl>, Precipitacion_Maxima_30minutos <dbl>,
## #   Heliofania_Efectiva <lgl>, Heliofania_Relativa <lgl>,
## #   Tesion_Vapor_Media <dbl>, Humedad_Media <dbl>, Humedad_Media_8_14_20 <dbl>,
## #   Rocio_Medio <dbl>, Duracion_Follaje_Mojado <lgl>,
## #   Velocidad_Viento_200cm_Media <lgl>, Direccion_Viento_200cm <chr>,
## #   Velocidad_Viento_1000cm_Media <lgl>, Direccion_Viento_1000cm <chr>,
## #   Velocidad_Viento_Maxima <lgl>, Presion_Media <lgl>, Radiacion_Global <lgl>,
## #   Horas_Frio <dbl>, Unidades_Frio <dbl>, mes <chr>, Temperatura_kelvin <dbl>,
## #   `15` <dbl>

Recordá que las funciones de {dplyr} nunca modifican la tabla original. mutate() devolvió una nueva tabla que es igual a la tabla bariloche pero con la columna “Temperatura_kelvin” agregada. La tabla bariloche sigue intacta.

Si quisiéramos aplicar la misma operación a todas las columnas que tienen temperatura, la función across() brinda un atajo para no tener que aplicar mutate() una y otra vez a cada cada columna.

bariloche %>% 
  summarise(across(starts_with("Temperatura"), ~.x + 273,15))

## # A tibble: 3,024 x 9
##    Temperatura_Abr… Temperatura_Abr… Temperatura_Abr… Temperatura_Int…
##               <dbl>            <dbl>            <dbl>            <dbl>
##  1              NA               NA               NA                NA
##  2             277.             286.             272.               NA
##  3             275.             282.             270.               NA
##  4             276.             283.             274.               NA
##  5             276.             283.             272.               NA
##  6             279.             286.             276.               NA
##  7             276.             286.             271.               NA
##  8             279.             283.             277.               NA
##  9             278.             280.             276.               NA
## 10             278.             282.             276.               NA
## # … with 3,014 more rows, and 5 more variables:
## #   Temperatura_Intemperie_50cm_Minima <dbl>,
## #   Temperatura_Suelo_5cm_Media <dbl>, Temperatura_Suelo_10cm_Media <dbl>,
## #   Temperatura_Inte_5cm <dbl>, Temperatura_Intemperie_150cm_Minima <dbl>
…
bariloche %>% 
  mutate(____ = ____)

Ahora imaginemos que necesitamos modificar algunas observaciones, aquellas que cumplen con una condición. Por ejemplo, descubrimos que cuando la humedad es 100%, el sensor de temperatura no funciona correctamente y necesitamos aplicarle una corrección de -2° en esas situaciones.

Podríamos filtrar las observaciones que cumplen con que Humedad_Media == 100 y luego modificar la temperatura, pero entonces tendríamos una base de datos para las observaciones con mayor humedad y la temperatura corregida y otra base de datos sin la corrección. Necesitamos poder modificar solo algunas observaciones y que el resto se mantenga igual.

Para eso podemos utilizar la función if_else(), que aplica una operación si ocurre algo y otra operación si no. En este caso si Humedad_Media == 100 es verdadera, restamos 2 grados a la Temperatura, si es falsa no la modificamos. Y por supuesto se la aplicamos a la columna con mutate()

bariloche %>% 
  mutate(Temperatura_Abrigo_150cm = if_else(Humedad_Media == 100,       # Condición
                                            Temperatura_Abrigo_150cm -2,# Si es verdadera
                                            Temperatura_Abrigo_150cm))  # Si es falsa

## # A tibble: 3,024 x 31
##    Fecha               Temperatura_Abr… Temperatura_Abr… Temperatura_Abr…
##    <dttm>                         <dbl>            <dbl>            <dbl>
##  1 2011-05-28 00:00:00            NA                NA               NA  
##  2 2011-05-29 00:00:00             4.27             12.8             -1.2
##  3 2011-05-30 00:00:00             1.69              9.2             -2.8
##  4 2011-05-31 00:00:00             3.47              9.6              0.5
##  5 2011-06-01 00:00:00             2.90              9.6             -1.5
##  6 2011-06-02 00:00:00             6.26             13.3              2.9
##  7 2011-06-03 00:00:00             3.45             12.6             -1.8
##  8 2011-06-04 00:00:00             6.09             10.2              3.9
##  9 2011-06-05 00:00:00             3.00              7.1              3.4
## 10 2011-06-06 00:00:00             5.45              9.5              3.2
## # … with 3,014 more rows, and 27 more variables:
## #   Temperatura_Intemperie_5cm_Minima <lgl>,
## #   Temperatura_Intemperie_50cm_Minima <lgl>,
## #   Temperatura_Suelo_5cm_Media <lgl>, Temperatura_Suelo_10cm_Media <dbl>,
## #   Temperatura_Inte_5cm <lgl>, Temperatura_Intemperie_150cm_Minima <lgl>,
## #   Humedad_Suelo <lgl>, Precipitacion_Pluviometrica <dbl>,
## #   Precipitacion_Cronologica <dbl>, Precipitacion_Maxima_30minutos <dbl>,
## #   Heliofania_Efectiva <lgl>, Heliofania_Relativa <lgl>,
## #   Tesion_Vapor_Media <dbl>, Humedad_Media <dbl>, Humedad_Media_8_14_20 <dbl>,
…
bariloche %>% 
  group_by(mes) %>% 
  mutate(Temperatura_max_media = mean(Temperatura_Abrigo_150cm_Maxima, na.rm = TRUE)) 

bariloche %>% 
  mutate(Temperatura_max_media = mean(Temperatura_Abrigo_150cm_Maxima, na.rm = TRUE))  

En otras palabras, los resultados de mutate(), filter(), summarise() y otras funciones cambian según si la tabla está agrupada o no. Como a veces uno se puede olvidar que quedaron grupos, es conveniente usar la función ungroup() una vez que dejás de trabajar con grupos:

bariloche %>% 
  group_by(mes) %>% 
  mutate(Temperatura_max_media = mean(Temperatura_Abrigo_150cm_Maxima, na.rm = TRUE)) %>%  
  ungroup()

## # A tibble: 3,024 x 32
##    Fecha               Temperatura_Abr… Temperatura_Abr… Temperatura_Abr…
##    <dttm>                         <dbl>            <dbl>            <dbl>
##  1 2011-05-28 00:00:00            NA                NA               NA  
##  2 2011-05-29 00:00:00             4.27             12.8             -1.2
##  3 2011-05-30 00:00:00             1.69              9.2             -2.8
##  4 2011-05-31 00:00:00             3.47              9.6              0.5
##  5 2011-06-01 00:00:00             2.90              9.6             -1.5
##  6 2011-06-02 00:00:00             6.26             13.3              2.9
##  7 2011-06-03 00:00:00             3.45             12.6             -1.8
##  8 2011-06-04 00:00:00             6.09             10.2              3.9
##  9 2011-06-05 00:00:00             5.00              7.1              3.4
## 10 2011-06-06 00:00:00             5.45              9.5              3.2
## # … with 3,014 more rows, and 28 more variables:
## #   Temperatura_Intemperie_5cm_Minima <lgl>,
## #   Temperatura_Intemperie_50cm_Minima <lgl>,
## #   Temperatura_Suelo_5cm_Media <lgl>, Temperatura_Suelo_10cm_Media <dbl>,
## #   Temperatura_Inte_5cm <lgl>, Temperatura_Intemperie_150cm_Minima <lgl>,
## #   Humedad_Suelo <lgl>, Precipitacion_Pluviometrica <dbl>,
## #   Precipitacion_Cronologica <dbl>, Precipitacion_Maxima_30minutos <dbl>,
## #   Heliofania_Efectiva <lgl>, Heliofania_Relativa <lgl>,
## #   Tesion_Vapor_Media <dbl>, Humedad_Media <dbl>, Humedad_Media_8_14_20 <dbl>,
…
