Manipulación de datos ordenados usando {dplyr} y {tidyr} II
…
bariloche

## # A tibble: 3,024 x 31
##    Fecha               Temperatura_Abr… Temperatura_Abr… Temperatura_Abr…
##    <dttm>                         <dbl>            <dbl>            <dbl>
##  1 2011-05-28 00:00:00            NA                NA               NA  
##  2 2011-05-29 00:00:00             4.27             12.8             -1.2
##  3 2011-05-30 00:00:00             1.69              9.2             -2.8
##  4 2011-05-31 00:00:00             3.47              9.6              0.5
##  5 2011-06-01 00:00:00             2.90              9.6             -1.5
##  6 2011-06-02 00:00:00             6.26             13.3              2.9
##  7 2011-06-03 00:00:00             3.45             12.6             -1.8
##  8 2011-06-04 00:00:00             6.09             10.2              3.9
##  9 2011-06-05 00:00:00             5.00              7.1              3.4
## 10 2011-06-06 00:00:00             5.45              9.5              3.2
## # … with 3,014 more rows, and 27 more variables:
## #   Temperatura_Intemperie_5cm_Minima <lgl>,
## #   Temperatura_Intemperie_50cm_Minima <lgl>,
## #   Temperatura_Suelo_5cm_Media <lgl>, Temperatura_Suelo_10cm_Media <dbl>,
## #   Temperatura_Inte_5cm <lgl>, Temperatura_Intemperie_150cm_Minima <lgl>,
## #   Humedad_Suelo <lgl>, Precipitacion_Pluviometrica <dbl>,
## #   Precipitacion_Cronologica <dbl>, Precipitacion_Maxima_30minutos <dbl>,
## #   Heliofania_Efectiva <lgl>, Heliofania_Relativa <lgl>,
## #   Tesion_Vapor_Media <dbl>, Humedad_Media <dbl>, Humedad_Media_8_14_20 <dbl>,
…
bariloche %>% 
  group_by(mes, variable) %>% 
  summarise(promedio = mean(valor, na.rm = TRUE))

Para poder hacer eso hay que tener los datos en un formato más largo. Para convertirlo en una tabla más larga, se usa pivot_longer() (“longer” es “más largo” en inglés):

bariloche_largo <- bariloche %>% 
  select(Fecha, starts_with("Temperatura")) %>% 
  pivot_longer(cols = -Fecha,
               names_to = "variable_lugar_altura_tipo",
               values_to = "valor")

bariloche_largo

## # A tibble: 27,216 x 3
##    Fecha               variable_lugar_altura_tipo          valor
##    <dttm>              <chr>                               <dbl>
##  1 2011-05-28 00:00:00 Temperatura_Abrigo_150cm            NA   
##  2 2011-05-28 00:00:00 Temperatura_Abrigo_150cm_Maxima     NA   
##  3 2011-05-28 00:00:00 Temperatura_Abrigo_150cm_Minima     NA   
##  4 2011-05-28 00:00:00 Temperatura_Intemperie_5cm_Minima   NA   
##  5 2011-05-28 00:00:00 Temperatura_Intemperie_50cm_Minima  NA   
##  6 2011-05-28 00:00:00 Temperatura_Suelo_5cm_Media         NA   
##  7 2011-05-28 00:00:00 Temperatura_Suelo_10cm_Media        NA   
##  8 2011-05-28 00:00:00 Temperatura_Inte_5cm                NA   
##  9 2011-05-28 00:00:00 Temperatura_Intemperie_150cm_Minima NA   
## 10 2011-05-29 00:00:00 Temperatura_Abrigo_150cm             4.27
## # … with 27,206 more rows
…
Proceso de largo a ancho

La columna variable_lugar_altura_tipo todavía no es muy útil porque contiene 4 datos, la variable (temperatura), el lugar, la altura y el tipo de observación. Sería mejor separar esta información en dos columnas llamadas “variable”, “lugar”, “altura” y “tipo”. Para eso está la función separate().

bariloche_largo <- separate(bariloche_largo, 
                            col = variable_lugar_altura_tipo, 
                            into = c("variable", "lugar", "altura", "tipo"), 
                            sep = "_")

## Warning: Expected 4 pieces. Missing pieces filled with `NA` in 6048 rows [1, 8,
## 10, 17, 19, 26, 28, 35, 37, 44, 46, 53, 55, 62, 64, 71, 73, 80, 82, 89, ...].

bariloche_largo

## # A tibble: 27,216 x 6
##    Fecha               variable    lugar      altura tipo   valor
##    <dttm>              <chr>       <chr>      <chr>  <chr>  <dbl>
##  1 2011-05-28 00:00:00 Temperatura Abrigo     150cm  <NA>   NA   
##  2 2011-05-28 00:00:00 Temperatura Abrigo     150cm  Maxima NA   
##  3 2011-05-28 00:00:00 Temperatura Abrigo     150cm  Minima NA   
##  4 2011-05-28 00:00:00 Temperatura Intemperie 5cm    Minima NA   
##  5 2011-05-28 00:00:00 Temperatura Intemperie 50cm   Minima NA   
##  6 2011-05-28 00:00:00 Temperatura Suelo      5cm    Media  NA   
##  7 2011-05-28 00:00:00 Temperatura Suelo      10cm   Media  NA   
##  8 2011-05-28 00:00:00 Temperatura Inte       5cm    <NA>   NA   
##  9 2011-05-28 00:00:00 Temperatura Intemperie 150cm  Minima NA   
## 10 2011-05-29 00:00:00 Temperatura Abrigo     150cm  <NA>    4.27
## # … with 27,206 more rows

El primer argumento, como siempre, es la tabla a procesar. El segundo, col, es la columna a separar en dos (o más) columnas nuevas. El tercero, into es el nombre de las nuevas columnas que separate() va a crear. El último argumento es sep que define cómo realizar la separación. Por defecto, sep es una expresión regular que captura cualquier caracter no alfanumérico.

Habrás notado un problema. Para “Temperatura_Abrigo_150cm” y para “Temperatura_Inte_5cm”, la columna “tipo” es NA. Esto es porque el texto no tiene 4 “pedazos”. Sería conveniente agregarle algo. Asumiendo que es una temperatura media, se puede modificar con un if_else():

bariloche_largo <- bariloche_largo %>%
  mutate(tipo = if_else(is.na(tipo), "Media", tipo))
bariloche_largo

## # A tibble: 27,216 x 6
##    Fecha               variable    lugar      altura tipo   valor
##    <dttm>              <chr>       <chr>      <chr>  <chr>  <dbl>
##  1 2011-05-28 00:00:00 Temperatura Abrigo     150cm  Media  NA   
##  2 2011-05-28 00:00:00 Temperatura Abrigo     150cm  Maxima NA   
##  3 2011-05-28 00:00:00 Temperatura Abrigo     150cm  Minima NA   
##  4 2011-05-28 00:00:00 Temperatura Intemperie 5cm    Minima NA   
##  5 2011-05-28 00:00:00 Temperatura Intemperie 50cm   Minima NA   
##  6 2011-05-28 00:00:00 Temperatura Suelo      5cm    Media  NA   
##  7 2011-05-28 00:00:00 Temperatura Suelo      10cm   Media  NA   
##  8 2011-05-28 00:00:00 Temperatura Inte       5cm    Media  NA   
##  9 2011-05-28 00:00:00 Temperatura Intemperie 150cm  Minima NA   
## 10 2011-05-29 00:00:00 Temperatura Abrigo     150cm  Media   4.27
## # … with 27,206 more rows
…
Desafío

Esta tabla sólo tiene datos de temperatura. ¿Se podría incluir cualquier otra variable? ¿Humedad, dirección del viento, estado del tiempo? ¿Cómo lo harías?

De largo a ancho con pivot_wider()

Ahora la variable bariloche_largo está en el formato más largo posible. Tiene 6 columnas, de las cuales sólo una es la columnas con valores. Pero con los datos así no podrías hacer un gráfico de puntos que muestre, por ejemplo, la relación entre la temperatura mínima y la temperatura máxima. En este caso todos los valores en la columna valor tienen las mismas unidades, pero podría tener otras variables, como humedad o presión. En ese caso, no tendrían las mismas unidades, por lo que operar con ese vector podría dar resultados sin sentido. Muchas veces es conveniente y natural tener los datos en un formato intermedio en donde hay múltiples columnas con los valores de distintas variables observadas.

Pasa “ensanchar” una tabla está la función pivot_wider() (“wider” es “más ancha” en inglés) y el código para conseguir este formato intermedio es:

bariloche_medio <- pivot_wider(bariloche_largo, names_from = tipo, values_from = valor)
bariloche_medio

## # A tibble: 21,168 x 7
##    Fecha               variable    lugar      altura Media Maxima Minima
##    <dttm>              <chr>       <chr>      <chr>  <dbl>  <dbl>  <dbl>
##  1 2011-05-28 00:00:00 Temperatura Abrigo     150cm  NA      NA     NA  
##  2 2011-05-28 00:00:00 Temperatura Intemperie 5cm    NA      NA     NA  
##  3 2011-05-28 00:00:00 Temperatura Intemperie 50cm   NA      NA     NA  
##  4 2011-05-28 00:00:00 Temperatura Suelo      5cm    NA      NA     NA  
##  5 2011-05-28 00:00:00 Temperatura Suelo      10cm   NA      NA     NA  
##  6 2011-05-28 00:00:00 Temperatura Inte       5cm    NA      NA     NA  
##  7 2011-05-28 00:00:00 Temperatura Intemperie 150cm  NA      NA     NA  
##  8 2011-05-29 00:00:00 Temperatura Abrigo     150cm   4.27   12.8   -1.2
##  9 2011-05-29 00:00:00 Temperatura Intemperie 5cm    NA      NA     NA  
## 10 2011-05-29 00:00:00 Temperatura Intemperie 50cm   NA      NA     NA  
## # … with 21,158 more rows

Nuevamente el primer argumento es la tabla original. El segundo, names_from es la columna cuyos valores únicos van a convertirse en nuevas columnas. La columna tipo tiene los valores "Media", "Maxima" y "Minima" y entonces la tabla nueva tendrá tres columnas con esos nombres. El tercer argumento, values_from, es la columna de la cual sacar los valores.

Para volver al formato más ancho, basta con agregar más columnas en el argumento names_from:

pivot_wider(bariloche_largo, 
            names_from = c(variable, lugar, altura, tipo), 
            names_sep = "_",
            values_from = valor)

## # A tibble: 3,024 x 10
##    Fecha               Temperatura_Abr… Temperatura_Abr… Temperatura_Abr…
##    <dttm>                         <dbl>            <dbl>            <dbl>
##  1 2011-05-28 00:00:00            NA                NA               NA  
##  2 2011-05-29 00:00:00             4.27             12.8             -1.2
##  3 2011-05-30 00:00:00             1.69              9.2             -2.8
##  4 2011-05-31 00:00:00             3.47              9.6              0.5
##  5 2011-06-01 00:00:00             2.90              9.6             -1.5
##  6 2011-06-02 00:00:00             6.26             13.3              2.9
##  7 2011-06-03 00:00:00             3.45             12.6             -1.8
##  8 2011-06-04 00:00:00             6.09             10.2              3.9
##  9 2011-06-05 00:00:00             5.00              7.1              3.4
## 10 2011-06-06 00:00:00             5.45              9.5              3.2
## # … with 3,014 more rows, and 6 more variables:
## #   Temperatura_Intemperie_5cm_Minima <dbl>,
## #   Temperatura_Intemperie_50cm_Minima <dbl>,
## #   Temperatura_Suelo_5cm_Media <dbl>, Temperatura_Suelo_10cm_Media <dbl>,
## #   Temperatura_Inte_5cm_Media <dbl>, Temperatura_Intemperie_150cm_Minima <dbl>
…
En el archivo “estaciones_smn.csv” hay metadatos de las estaciones meteorológicas del Servicio Meteorológico Nacional (nombre, provincia, ubicación, etc…):

estaciones <- readr::read_csv("datos/estaciones_smn.csv") 
estaciones

## # A tibble: 123 x 5
##    nombre                   provincia      lon   lat altua
##    <chr>                    <chr>        <dbl> <dbl> <dbl>
##  1 BASE BELGRANO II         ANTARTIDA    -34.6 -77.9   256
##  2 BASE CARLINI (EX JUBANY) ANTARTIDA    -58.6 -62.2    11
##  3 BASE ESPERANZA           ANTARTIDA    -57.0 -63.4    24
##  4 BASE MARAMBIO            ANTARTIDA    -56.7 -64.2   198
##  5 BASE ORCADAS             ANTARTIDA    -44.7 -60.8    12
##  6 BASE SAN MARTIN          ANTARTIDA    -67.1 -68.1     7
##  7 AZUL AERO                BUENOS AIRES -59.9 -36.8   147
##  8 BAHIA BLANCA AERO        BUENOS AIRES -62.2 -38.7    83
##  9 BENITO JUAREZ AERO       BUENOS AIRES -59.8 -37.7   207
## 10 BOLIVAR AERO             BUENOS AIRES -61.1 -36.2    94
## # … with 113 more rows
…
observaciones <- readr::read_csv("datos/observaciones_smn.csv")

## 
## ── Column specification ────────────────────────────────────────────────────────
## cols(
##   tmax = col_double(),
##   tmin = col_double(),
##   station = col_character(),
##   date = col_date(format = "")
## )

observaciones

## # A tibble: 3,812 x 4
##     tmax  tmin station                  date      
##    <dbl> <dbl> <chr>                    <date>    
##  1  16.1   9.4 AEROPARQUE AERO          2020-08-01
##  2  17.6  -1.6 AZUL AERO                2020-08-01
##  3  18.6   2.4 BAHIA BLANCA AERO        2020-08-01
##  4   9     1.6 BARILOCHE AERO           2020-08-01
##  5  NA   -33.5 BASE BELGRANO II         2020-08-01
##  6   2.1  -3.3 BASE CARLINI (EX JUBANY) 2020-08-01
##  7  -0.4  -2.6 BASE ESPERANZA           2020-08-01
##  8  -2.2  -7.4 BASE MARAMBIO            2020-08-01
##  9  -0.5  -7.8 BASE ORCADAS             2020-08-01
## 10   1.4  -7.6 BASE SAN MARTIN          2020-08-01
## # … with 3,802 more rows

Sería muy útil unir ambas tablas de manera de tener la información de la temperatura en cada ubicación.

Para unir las dos tablas, cualquier función join requiere cierta información:

las tablas a unir: son los dos primeros argumentos.

qué variable o variables (se puede usar más de una!) usar para identificar coincidencias: el argumento by.

Unamos observaciones y estaciones primero con full_join():

estaciones_obs <- full_join(observaciones, estaciones, by = c("station" = "nombre"))
estaciones_obs

## # A tibble: 3,813 x 8
##     tmax  tmin station                date       provincia       lon   lat altua
##    <dbl> <dbl> <chr>                  <date>     <chr>         <dbl> <dbl> <dbl>
##  1  16.1   9.4 AEROPARQUE AERO        2020-08-01 CAPITAL FEDE… -58.4 -34.6     6
##  2  17.6  -1.6 AZUL AERO              2020-08-01 BUENOS AIRES  -59.9 -36.8   147
##  3  18.6   2.4 BAHIA BLANCA AERO      2020-08-01 BUENOS AIRES  -62.2 -38.7    83
##  4   9     1.6 BARILOCHE AERO         2020-08-01 RIO NEGRO     -71.2 -41.2   835
##  5  NA   -33.5 BASE BELGRANO II       2020-08-01 ANTARTIDA     -34.6 -77.9   256
##  6   2.1  -3.3 BASE CARLINI (EX JUBA… 2020-08-01 ANTARTIDA     -58.6 -62.2    11
##  7  -0.4  -2.6 BASE ESPERANZA         2020-08-01 ANTARTIDA     -57.0 -63.4    24
##  8  -2.2  -7.4 BASE MARAMBIO          2020-08-01 ANTARTIDA     -56.7 -64.2   198
##  9  -0.5  -7.8 BASE ORCADAS           2020-08-01 ANTARTIDA     -44.7 -60.8    12
## 10   1.4  -7.6 BASE SAN MARTIN        2020-08-01 ANTARTIDA     -67.1 -68.1     7
## # … with 3,803 more rows
Como el nombre de la estación en la tabla observaciones está en una columna llamada “station”, mientras que en la tabla estaciones, está en una columna llamada “nombre”. Cuando pasa eso, en el argumento by hay que poner un vector con nombres.

Si mirás de cerca la tabla unida vas a ver un par de cosas:

Todas las columnas de observaciones y de estaciones están presentes.

Todas las observaciones están presentes, aún los estaciones que están presentes en estaciones pero no en observaciones y viceversa.

¿Existe alguna estación que no esté en ambas tablas? Si comparás la cantidad de filas de observaciones y de estaciones_obs, vas a ver que la primera tiene 3812 filas y la segunda, 3813. Esto ya da una pista de que probablemente haya una estación en estaciones que no está en observaciones que es la fila extra.

Para buscar sistemáticamente estas estaciones errantes hay que usar anti_join, que devuelve las filas de la tabla de la izquierda que no está en la derecha. Entonces, usando exactamente el mismo código de arriba pero cambiando full_join por anti_join, queda:

anti_join(observaciones, estaciones, by = c("station" = "nombre"))

## # A tibble: 31 x 4
##     tmax  tmin station                           date      
##    <dbl> <dbl> <chr>                             <date>    
##  1  33.6  13.5 PRESIDENCIA ROQUE SAENZ PE�A AERO 2020-08-01
##  2  34    17.3 PRESIDENCIA ROQUE SAENZ PE�A AERO 2020-08-02
##  3  34.1  17.3 PRESIDENCIA ROQUE SAENZ PE�A AERO 2020-08-03
##  4  34.2  16   PRESIDENCIA ROQUE SAENZ PE�A AERO 2020-08-04
##  5  35.1  18   PRESIDENCIA ROQUE SAENZ PE�A AERO 2020-08-05
##  6  34.5  16.3 PRESIDENCIA ROQUE SAENZ PE�A AERO 2020-08-06
##  7  24    11.5 PRESIDENCIA ROQUE SAENZ PE�A AERO 2020-08-07
##  8  32.7  10.1 PRESIDENCIA ROQUE SAENZ PE�A AERO 2020-08-08
##  9  35    11.7 PRESIDENCIA ROQUE SAENZ PE�A AERO 2020-08-09
## 10  36.2  15   PRESIDENCIA ROQUE SAENZ PE�A AERO 2020-08-10
## # … with 21 more rows
…
anti_join(estaciones, observaciones, by = c("nombre" = "station"))

## # A tibble: 1 x 5
##   nombre                            provincia   lon   lat altua
##   <chr>                             <chr>     <dbl> <dbl> <dbl>
## 1 PRESIDENCIA ROQUE SAENZ PEÑA AERO CHACO     -60.4 -26.8    93

Esto nos dice que la estación “PRESIDENCIA ROQUE SAENZ PEÑA AERO”, está en la tabla estaciones con la codificación correcta. anti_join es muy útil para encontrar problemas como estos.

full_join es la opción más segura si no sabés si todas las observaciones de una tabla están presente en a otra. Si sólo te interesa conservar las filas de la tabla de la izquierda (en este caso estaciones entonces:

obs_estaciones <- left_join(observaciones, estaciones,  by = c("station" = "nombre"))
obs_estaciones

## # A tibble: 3,812 x 8
##     tmax  tmin station                date       provincia       lon   lat altua
##    <dbl> <dbl> <chr>                  <date>     <chr>         <dbl> <dbl> <dbl>
##  1  16.1   9.4 AEROPARQUE AERO        2020-08-01 CAPITAL FEDE… -58.4 -34.6     6
##  2  17.6  -1.6 AZUL AERO              2020-08-01 BUENOS AIRES  -59.9 -36.8   147
##  3  18.6   2.4 BAHIA BLANCA AERO      2020-08-01 BUENOS AIRES  -62.2 -38.7    83
##  4   9     1.6 BARILOCHE AERO         2020-08-01 RIO NEGRO     -71.2 -41.2   835
##  5  NA   -33.5 BASE BELGRANO II       2020-08-01 ANTARTIDA     -34.6 -77.9   256
##  6   2.1  -3.3 BASE CARLINI (EX JUBA… 2020-08-01 ANTARTIDA     -58.6 -62.2    11
##  7  -0.4  -2.6 BASE ESPERANZA         2020-08-01 ANTARTIDA     -57.0 -63.4    24
##  8  -2.2  -7.4 BASE MARAMBIO          2020-08-01 ANTARTIDA     -56.7 -64.2   198
##  9  -0.5  -7.8 BASE ORCADAS           2020-08-01 ANTARTIDA     -44.7 -60.8    12
## 10   1.4  -7.6 BASE SAN MARTIN        2020-08-01 ANTARTIDA     -67.1 -68.1     7
## # … with 3,802 more rows

Esta tabla tiene la misma cantidad de filas que observaciones. ¿Qué pasó con la estación que está mal codificada? Filtrando los datos:

obs_estaciones %>% 
  filter(startsWith(station, "PRESIDENCIA ROQUE"))

## # A tibble: 31 x 8
##     tmax  tmin station                    date       provincia   lon   lat altua
##    <dbl> <dbl> <chr>                      <date>     <chr>     <dbl> <dbl> <dbl>
##  1  33.6  13.5 PRESIDENCIA ROQUE SAENZ P… 2020-08-01 <NA>         NA    NA    NA
##  2  34    17.3 PRESIDENCIA ROQUE SAENZ P… 2020-08-02 <NA>         NA    NA    NA
##  3  34.1  17.3 PRESIDENCIA ROQUE SAENZ P… 2020-08-03 <NA>         NA    NA    NA
##  4  34.2  16   PRESIDENCIA ROQUE SAENZ P… 2020-08-04 <NA>         NA    NA    NA
##  5  35.1  18   PRESIDENCIA ROQUE SAENZ P… 2020-08-05 <NA>         NA    NA    NA
##  6  34.5  16.3 PRESIDENCIA ROQUE SAENZ P… 2020-08-06 <NA>         NA    NA    NA
##  7  24    11.5 PRESIDENCIA ROQUE SAENZ P… 2020-08-07 <NA>         NA    NA    NA
##  8  32.7  10.1 PRESIDENCIA ROQUE SAENZ P… 2020-08-08 <NA>         NA    NA    NA
##  9  35    11.7 PRESIDENCIA ROQUE SAENZ P… 2020-08-09 <NA>         NA    NA    NA
## 10  36.2  15   PRESIDENCIA ROQUE SAENZ P… 2020-08-10 <NA>         NA    NA    NA
## # … with 21 more rows
…
