Manipulando fechas
…
Por supuesto podríamos guardar esas fechas en variables o usar las funciones dentro de mutate() pra generar columnas nuevas en un data frame.

Sus componentes

Ahora que sabemos como armar fechas, es posible que te estés preguntando como desarmarlas o como extraer sus componentes. Algo de esto ya hicimos al graficar temperaturas medías mensuales pero vamos a revisarlo.

{lubridate} tiene toda una familia de funciones que permiten extraer las componentes de una variable fecha u fecha y hora. Acá la clave es recordar los nombres en inglés (no nos queda otra!), por ejemplo si queremos el mes, la función será month().

Veamos como funciona.

reportes %>% 
  mutate(mes = month(fecha_convertida),
         dia = day(fecha_convertida)) 

## # A tibble: 1,431 x 7
##    fecha            lat   lon evento             fecha_convertida      mes   dia
##    <chr>          <dbl> <dbl> <chr>              <dttm>              <dbl> <int>
##  1 10/29/2018 22… -33.1 -64.3 Ráfagas y/o vient… 2018-10-29 22:05:00    10    29
##  2 10/30/2018 13… -33.0 -60.8 Rayos y/o truenos  2018-10-30 13:00:00    10    30
##  3 12/16/2017 22… -31.0 -64.1 Rayos y/o truenos  2017-12-16 22:30:00    12    16
##  4 2/14/2016 2:3… -31.0 -64.1 Lluvias intensas   2016-02-14 02:30:00     2    14
##  5 10/30/2018 10… -32.8 -61.2 Granizo            2018-10-30 10:00:00    10    30
##  6 10/29/2018 19… -33.3 -65.6 Granizo            2018-10-29 19:00:00    10    29
##  7 10/30/2018 12… -31.4 -64.3 Granizo            2018-10-30 12:50:00    10    30
##  8 11/3/2018 10:… -31.8 -65.0 Rayos y/o truenos  2018-11-03 10:35:00    11     3
##  9 10/29/2018 22… -33.1 -64.3 Ráfagas y/o vient… 2018-10-29 22:00:00    10    29
## 10 11/3/2018 13:… -31.4 -64.6 Lluvias intensas   2018-11-03 13:45:00    11     3
## # … with 1,421 more rows
…
