Gráficos espaciales
…
observaciones_regular <- kriging::kriging(x = observaciones$lon, 
                                          y = observaciones$lat,
                                          response = observaciones$tmax_media)

## Error in onedim(response, n): NA/NaN/Inf in foreign function call (arg 1)

Este error indica que hay NAs, y kriging()
no funciona si hay valores faltantes. Lo que hay que hacer es omitirlos.
La función na.omit() elimina filas donde algún valor sea
NA.

na.omit(observaciones)

## # A tibble: 115 × 6
##    station                   tmax_media provincia         lon   lat altua
##    <chr>                          <dbl> <chr>           <dbl> <dbl> <dbl>
##  1 AEROPARQUE AERO                17.4  CAPITAL FEDERAL -58.4 -34.6     6
##  2 AZUL AERO                      16.4  BUENOS AIRES    -59.9 -36.8   147
##  3 BAHIA BLANCA AERO              16.0  BUENOS AIRES    -62.2 -38.7    83
##  4 BARILOCHE AERO                  8.63 RIO NEGRO       -71.2 -41.2   835
##  5 BENITO JUAREZ AERO             15.6  BUENOS AIRES    -59.8 -37.7   207
##  6 BERNARDO DE IRIGOYEN AERO      22.4  MISIONES        -53.6 -26.2   815
##  7 BOLIVAR AERO                   17.4  BUENOS AIRES    -61.1 -36.2    94
##  8 BUENOS AIRES OBSERVATORIO      19.0  CAPITAL FEDERAL -58.5 -34.6    25
##  9 CAMPO DE MAYO AERO             18.8  BUENOS AIRES    -58.7 -34.5    26
## 10 CATAMARCA AERO                 25.1  CATAMARCA       -65.8 -28.6   464
## # … with 105 more rows
…
